{
	"id":"507f1f777bcde799901",
	"firstName":"John",
	"lastName": "Smith",
	"email": "johnsmith@gmail.com",
	"password": "johnhandsome",
	"isAdmin": false,
	"mobileNumber": "092212311234",
	"enrollments": [
		"601456566464"
		"602454574146"
	],
    "dateRegistered": "2021-03-15"


}

{
	"id":"507f1f777bcde7999012",
	"firstName":"Jane",
	"lastName": "Doe",
	"email": "janedoe@gmail.com",
	"password": "janedoe",
	"isAdmin": false,
	"mobileNumber": "092212311234",
	"enrollments": [
		"601456566464"
		"602454574146"
	],
    "dateRegistered": "2021-03-15"


}